Biostat 203B Homework 5
…
Computational engine: xgboost 

gb_wf <- workflow() |>
  add_recipe(gb_recipe) |>
  add_model(gb_mod)

# Tune the model
param_grid <- grid_regular(
  tree_depth(range = c(1L, 5L)),
  learn_rate(range = c(-4, 1), trans = log10_trans()),
  levels = c(3, 7)
  )
param_grid

# A tibble: 21 × 2
   tree_depth learn_rate
        <int>      <dbl>
 1          1   0.0001  
 2          3   0.0001  
 3          5   0.0001  
 4          1   0.000681
 5          3   0.000681
 6          5   0.000681
 7          1   0.00464 
 8          3   0.00464 
 9          5   0.00464 
10          1   0.0316  
# ℹ 11 more rows
…
gb_fit |>
  collect_metrics() |>
  print(width = Inf) |>
  filter(.metric == "roc_auc") |>
  ggplot(mapping = aes(x = learn_rate, y = mean, color = factor(tree_depth))) +
  geom_point() +
  labs(x = "Learning Rate", y = "CV AUC") +
  scale_x_log10()

# A tibble: 42 × 8
   tree_depth learn_rate .metric  .estimator  mean     n std_err
        <int>      <dbl> <chr>    <chr>      <dbl> <int>   <dbl>
 1          1   0.0001   accuracy binary     0.544     5 0.00363
 2          1   0.0001   roc_auc  binary     0.576     5 0.00362
 3          3   0.0001   accuracy binary     0.564     5 0.00370
 4          3   0.0001   roc_auc  binary     0.595     5 0.00332
 5          5   0.0001   accuracy binary     0.577     5 0.00364
 6          5   0.0001   roc_auc  binary     0.611     5 0.00326
 7          1   0.000681 accuracy binary     0.548     5 0.00351
 8          1   0.000681 roc_auc  binary     0.579     5 0.00327
 9          3   0.000681 accuracy binary     0.569     5 0.00342
10          3   0.000681 roc_auc  binary     0.600     5 0.00362
   .config              
   <chr>                
 1 Preprocessor1_Model01
 2 Preprocessor1_Model01
 3 Preprocessor1_Model02
 4 Preprocessor1_Model02
 5 Preprocessor1_Model03
 6 Preprocessor1_Model03
 7 Preprocessor1_Model04
 8 Preprocessor1_Model04
 9 Preprocessor1_Model05
10 Preprocessor1_Model05
# ℹ 32 more rows
…
Computational engine: glmnet 

logit_wf <- workflow() |>
  add_recipe(gb_recipe) |>
  add_model(logit_mod)

# Tune the model
param_grid <- grid_regular(
  penalty(range = c(-5, 2)), 
  mixture(),
  levels = c(50, 5)
  ) |>
  print()

# A tibble: 250 × 2
     penalty mixture
       <dbl>   <dbl>
 1 0.00001         0
 2 0.0000139       0
 3 0.0000193       0
 4 0.0000268       0
 5 0.0000373       0
 6 0.0000518       0
 7 0.0000720       0
 8 0.0001          0
 9 0.000139        0
10 0.000193        0
# ℹ 240 more rows
…
logit_fit |>
  # aggregate metrics from K folds
  collect_metrics() |>
  print(width = Inf) |>
  filter(.metric == "roc_auc") |>
  ggplot(mapping = aes(x = penalty, y = mean, color = factor(mixture))) +
  geom_point() +
  labs(x = "Penalty", y = "CV AUC") +
  scale_x_log10()

# A tibble: 500 × 8
     penalty mixture .metric  .estimator  mean     n std_err
       <dbl>   <dbl> <chr>    <chr>      <dbl> <int>   <dbl>
 1 0.00001         0 accuracy binary     0.577     5 0.00139
 2 0.00001         0 roc_auc  binary     0.603     5 0.00263
 3 0.0000139       0 accuracy binary     0.577     5 0.00139
 4 0.0000139       0 roc_auc  binary     0.603     5 0.00263
 5 0.0000193       0 accuracy binary     0.577     5 0.00139
 6 0.0000193       0 roc_auc  binary     0.603     5 0.00263
 7 0.0000268       0 accuracy binary     0.577     5 0.00139
 8 0.0000268       0 roc_auc  binary     0.603     5 0.00263
 9 0.0000373       0 accuracy binary     0.577     5 0.00139
10 0.0000373       0 roc_auc  binary     0.603     5 0.00263
   .config               
   <chr>                 
 1 Preprocessor1_Model001
 2 Preprocessor1_Model001
 3 Preprocessor1_Model002
 4 Preprocessor1_Model002
 5 Preprocessor1_Model003
 6 Preprocessor1_Model003
 7 Preprocessor1_Model004
 8 Preprocessor1_Model004
 9 Preprocessor1_Model005
10 Preprocessor1_Model005
# ℹ 490 more rows
…
